id;nom;date_debut;date_fin
1;Hat;2020-06-05T03:29:25;2020-06-04T21:56:44
2;calculating Direct;2020-06-05T00:27:23;2020-06-04T16:47:34
3;Buckinghamshire Tasty Frozen Salad;2020-06-05T11:28:24;2020-06-05T10:15:07
4;haptic;2020-06-04T13:55:50;2020-06-05T05:36:50
5;grow;2020-06-05T05:48:51;2020-06-04T22:59:28
6;motivating;2020-06-05T02:32:45;2020-06-05T02:37:25
7;Awesome Fresh Towels Credit Card Account;2020-06-04T22:28:47;2020-06-04T16:39:27
8;Internal;2020-06-04T15:12:58;2020-06-05T00:35:41
9;Greenland Landing;2020-06-04T23:04:16;2020-06-05T10:27:36
10;streamline;2020-06-04T17:25:16;2020-06-05T11:33:40
